<svg width="45" height="48" viewBox="0 0 45 48" fill="none" xmlns="http://www.w3.org/2000/svg">
<path d="M22.0799 25.7718C16.0071 25.7718 11.0666 30.7576 11.0666 36.8858C11.0666 43.0141 16.0071 48 22.0799 48C28.1527 48 33.0932 43.0142 33.0932 36.8859C33.0932 30.7577 28.1527 25.7718 22.0799 25.7718ZM22.0799 46.3893C16.8872 46.3893 12.6627 42.1261 12.6627 36.8859C12.6627 31.6458 16.8872 27.3826 22.0799 27.3826C27.2726 27.3826 31.4971 31.6458 31.4971 36.8859C31.4971 42.1261 27.2726 46.3893 22.0799 46.3893Z" fill="#FF0000"/>
<path d="M28.6031 32.8802C28.2915 32.5657 27.7861 32.5657 27.4745 32.8802L20.3773 40.0423L16.6853 36.3165C16.3736 36.002 15.8683 36.002 15.5567 36.3165C15.245 36.631 15.245 37.1409 15.5567 37.4554L19.8131 41.7507C19.9689 41.9079 20.1732 41.9866 20.3774 41.9866C20.5816 41.9866 20.7859 41.908 20.9417 41.7507L28.6032 34.0192C28.9148 33.7046 28.9148 33.1946 28.6031 32.8802Z" fill="#FF0000"/>
<path d="M41.6592 0H2.5006C1.12177 0 0 1.13203 0 2.52347V38.604C0 39.9954 1.12177 41.1275 2.5006 41.1275H8.45951C8.90023 41.1275 9.25761 40.7669 9.25761 40.3221C9.25761 39.8772 8.90032 39.5167 8.45951 39.5167H2.5006C2.00182 39.5167 1.59612 39.1073 1.59612 38.6039V2.52347C1.59612 2.02012 2.00182 1.61072 2.5006 1.61072H16.1742V13.6912C16.1742 13.9703 16.3175 14.2296 16.5527 14.3764C16.7878 14.5232 17.0817 14.5365 17.3292 14.4116L18.6748 13.7327L20.0202 14.4116C20.2448 14.5249 20.5093 14.5252 20.734 14.4116L22.0803 13.7325L23.4258 14.4114C23.6506 14.5249 23.915 14.5249 24.1398 14.4114L25.4853 13.7325L26.8308 14.4114C26.9435 14.4683 27.0658 14.4965 27.1878 14.4965C27.3337 14.4965 27.4792 14.4561 27.6073 14.3762C27.8425 14.2294 27.9858 13.9702 27.9858 13.6911V1.61072H41.6594C42.1582 1.61072 42.5639 2.02012 42.5639 2.52347V38.604C42.5639 39.1073 42.1582 39.5168 41.6594 39.5168H35.7C35.2593 39.5168 34.9019 39.8773 34.9019 40.3222C34.9019 40.767 35.2592 41.1276 35.7 41.1276H41.6594C43.0382 41.1276 44.16 39.9955 44.16 38.6041V2.52347C44.1598 1.13203 43.038 0 41.6592 0ZM26.3895 12.3881L25.842 12.1119C25.6173 11.9985 25.3529 11.9985 25.1281 12.1119L23.7826 12.7909L22.437 12.1119C22.2123 11.9987 21.9479 11.9984 21.7233 12.1119L20.377 12.7909L19.0315 12.1119C18.9191 12.0552 18.7968 12.0269 18.6746 12.0269C18.5523 12.0269 18.43 12.0552 18.3176 12.1119L17.7702 12.3882V1.61072H26.3894V12.3881H26.3895Z" fill="#FF0000"/>
<path d="M12.4289 11.4037C12.1172 11.0892 11.6119 11.0892 11.3003 11.4037L10.1089 12.6061V7.67784C10.1089 7.23309 9.75157 6.87244 9.31075 6.87244C8.87003 6.87244 8.51265 7.233 8.51265 7.67784V12.6061L7.3212 11.4037C7.00952 11.0892 6.50423 11.0892 6.19265 11.4037C5.88096 11.7183 5.88096 12.2282 6.19265 12.5426L8.74648 15.1198C8.90227 15.277 9.10656 15.3557 9.31075 15.3557C9.51495 15.3557 9.71924 15.2771 9.87503 15.1198L12.4289 12.5426C12.7405 12.2282 12.7405 11.7181 12.4289 11.4037Z" fill="#FF0000"/>
<path d="M11.8646 3.43622H6.75692C6.3162 3.43622 5.95882 3.79678 5.95882 4.24162C5.95882 4.68638 6.31611 5.04703 6.75692 5.04703H11.8646C12.3053 5.04703 12.6627 4.68647 12.6627 4.24162C12.6627 3.79688 12.3054 3.43622 11.8646 3.43622Z" fill="#FF0000"/>
</svg>
