<svg width="13" height="15" viewBox="0 0 13 15" fill="none" xmlns="http://www.w3.org/2000/svg">
<path d="M8.32281 1.67384L8.32281 1.67385C9.42577 2.74617 9.42577 4.47577 8.32281 5.54809C7.20802 6.63191 5.39206 6.63191 4.27727 5.54809C3.17431 4.47577 3.17431 2.74617 4.27727 1.67385L4.27728 1.67384C5.39206 0.590001 7.20802 0.590001 8.32281 1.67384ZM11.4104 10.2603L11.4106 10.2604C11.6853 10.4407 11.85 10.7445 11.85 11.0784V13.361H0.75V11.0784C0.75 10.7445 0.914708 10.4407 1.18936 10.2604L1.1896 10.2603C4.22148 8.26861 8.37852 8.26861 11.4104 10.2603ZM3.76042 1.14223L3.75898 1.14075L3.76042 1.14223Z" stroke="white" stroke-width="1.5"/>
</svg>
