<svg width="4" height="7" viewBox="0 0 4 7" fill="none" xmlns="http://www.w3.org/2000/svg">
<path opacity="0.7" d="M3.85609 3.84654L0.838849 6.85633C0.646917 7.04789 0.335731 7.04789 0.143891 6.85633C-0.0479637 6.66494 -0.0479637 6.35453 0.143891 6.16316L2.81368 3.49995L0.143969 0.836834C-0.0478861 0.645368 -0.0478861 0.334987 0.143969 0.143599C0.335824 -0.0478663 0.646994 -0.0478663 0.838927 0.143599L3.85616 3.15344C3.95209 3.24918 4 3.37453 4 3.49993C4 3.6254 3.952 3.75084 3.85609 3.84654Z" fill="#4C5458"/>
</svg>
