<svg width="8" height="5" viewBox="0 0 8 5" fill="none" xmlns="http://www.w3.org/2000/svg">
<path d="M3.60396 4.28454L0.164193 0.932055C-0.0547314 0.718796 -0.0547314 0.373034 0.164193 0.159879C0.382921 -0.0532934 0.737679 -0.0532934 0.95639 0.159879L4.00006 3.12631L7.04362 0.159965C7.26244 -0.0532069 7.61716 -0.0532068 7.83589 0.159965C8.0547 0.373138 8.0547 0.718883 7.83589 0.932141L4.39607 4.28463C4.28665 4.39121 4.1434 4.44444 4.00007 4.44444C3.85668 4.44444 3.71332 4.39111 3.60396 4.28454Z" fill="#121315"/>
</svg>
