<svg width="17" height="15" viewBox="0 0 17 15" fill="none" xmlns="http://www.w3.org/2000/svg">
<path d="M6.67066 9.886L6.38945 14.074C6.79179 14.074 6.96604 13.891 7.17501 13.6712L9.06134 11.7625L12.97 14.7932C13.6869 15.2162 14.1919 14.9935 14.3853 14.095L16.951 1.36605L16.9517 1.3653C17.179 0.243303 16.5684 -0.195445 15.87 0.0798037L0.789228 6.19302C-0.240005 6.61602 -0.224421 7.22352 0.614266 7.49876L4.46982 8.76851L13.4255 2.83529C13.847 2.53979 14.2302 2.70329 13.915 2.99879L6.67066 9.886Z" fill="#039BE5"/>
</svg>
